<?xml version="1.0" encoding="utf-8"?>
<!-- Generator: Adobe Illustrator 21.0.2, SVG Export Plug-In . SVG Version: 6.00 Build 0)  -->
<svg version="1.1" id="Слой_1" xmlns="http://www.w3.org/2000/svg" xmlns:xlink="http://www.w3.org/1999/xlink" x="0px" y="0px"
	 width="667.2px" height="500px" viewBox="0 0 667.2 500" enable-background="new 0 0 667.2 500" xml:space="preserve">
<path d="M250.2,333.5L83.4,166.9L0,250.2l208.5,208.4l41.7,41.7L667.2,83.5L583.8,0.2L250.2,333.5z"/>
</svg>
