<?xml version="1.0" encoding="utf-8"?>
<!-- Generator: Adobe Illustrator 21.0.0, SVG Export Plug-In . SVG Version: 6.00 Build 0)  -->
<svg version="1.1" id="Слой_1" xmlns="http://www.w3.org/2000/svg" xmlns:xlink="http://www.w3.org/1999/xlink" x="0px" y="0px"
	 width="500px" height="500px" viewBox="0 0 500 500" style="enable-background:new 0 0 500 500;" xml:space="preserve">
<path d="M250,191L71.4,12.5C55.2-4,28.7-4.2,12.3,12c0,0-0.1,0.1-0.1,0.1C-4.1,28.5-4,55,12.3,71.3c0,0,0.1,0.1,0.1,0.1L191,250
	L12.5,428.6c-16.4,16.2-16.6,42.7-0.4,59.1c0,0,0.1,0.1,0.1,0.1c16.4,16.3,42.8,16.2,59.1-0.2c0,0,0.1-0.1,0.1-0.1L250,309
	l178.6,178.6c16.5,16.5,42.9,16.6,59.2,0.3c16.3-16.4,16.2-42.8-0.2-59.1c0,0-0.1-0.1-0.1-0.1L309,250L487.5,71.4
	c16.5-16.5,16.6-42.9,0.3-59.2C471.4-4.1,445-4,428.7,12.3c0,0-0.1,0.1-0.1,0.1L250,191z"/>
</svg>
