<?xml version="1.0" encoding="utf-8"?>
<!-- Generator: Adobe Illustrator 19.0.1, SVG Export Plug-In . SVG Version: 6.00 Build 0)  -->
<svg version="1.1" id="Слой_1" xmlns="http://www.w3.org/2000/svg" xmlns:xlink="http://www.w3.org/1999/xlink" x="0px" y="0px"
	 width="501px" height="501px" viewBox="-533.5 170.4 501 501" enable-background="new -533.5 170.4 501 501" xml:space="preserve">
<path fill="#CECECE" d="M-533,566.8v104.1h104.1l307.2-307.2l-104.1-104.1L-533,566.8L-533,566.8z M-41.1,283.2
	c10.8-10.8,10.9-28.3,0.1-39.1c0,0-0.1-0.1-0.1-0.1l-65-65c-10.8-10.8-28.3-10.9-39.1-0.1c0,0-0.1,0.1-0.1,0.1l-50.8,50.9L-92,334
	C-92,334-41.1,283.2-41.1,283.2z"/>
</svg>
