<?xml version="1.0" encoding="utf-8"?>
<!-- Generator: Adobe Illustrator 19.0.1, SVG Export Plug-In . SVG Version: 6.00 Build 0)  -->
<svg version="1.1" id="Слой_1" xmlns="http://www.w3.org/2000/svg" xmlns:xlink="http://www.w3.org/1999/xlink" x="0px" y="0px"
	 width="358px" height="501px" viewBox="-420 0.5 358 501" enable-background="new -420 0.5 358 501" xml:space="preserve">
<title>pay-icon-orange</title>
<desc>Created with Sketch.</desc>
<g id="Лицевые-счета">
	<g id="accounts_x2F_payment-history" transform="translate(-1282.000000, -796.000000)">
		<g id="pay-icon" transform="translate(1283.000000, 798.000000)">
			<path id="Rectangle-3" fill="#FF8104" d="M-197.7,97.8v357.1c0,24.6-19.8,44.5-44.6,44.5l0,0c-24.6,0-44.6-19.9-44.6-44.5V97.8
				H-197.7z"/>
			<path fill="#FF8104" d="M-107.8,188c-8.6,0-17.2-2.5-24.9-7.6L-242,106.9L-351.4,180c-20.5,13.6-48.2,8.2-61.9-12.3
				c-13.7-20.5-8.2-48.2,12.3-61.9L-241.8-0.6l159,107c20.4,13.7,25.8,41.5,12.1,61.9C-79.4,181.1-93.5,188-107.8,188z"/>
		</g>
	</g>
</g>
</svg>
