<?xml version="1.0" encoding="utf-8"?>
<!-- Generator: Adobe Illustrator 21.0.0, SVG Export Plug-In . SVG Version: 6.00 Build 0)  -->
<svg version="1.1" id="Слой_1" xmlns="http://www.w3.org/2000/svg" xmlns:xlink="http://www.w3.org/1999/xlink" x="0px" y="0px"
	 width="500px" height="500px" viewBox="0 0 500 500" style="enable-background:new 0 0 500 500;" xml:space="preserve">
<title>service-telephone</title>
<desc>Created with Sketch.</desc>
<g id="service-telephone" transform="translate(0.000000, 12.000000)">
	<path style="fill:#858585;" d="M250,488C112.1,488,0,375.8,0,238C0,100.1,112.1-12,250-12c137.8,0,250,112.1,250,250
		C500,375.8,387.8,488,250,488z M250-2.9C117.2-2.9,9.1,105.2,9.1,238S117.2,478.9,250,478.9S490.9,370.8,490.9,238
		S382.8-2.9,250-2.9z"/>
	<path style="fill:#858585;" d="M286.4,210.7h-72.7c-15,0-27.3-12.2-27.3-27.3v-18.2c0-15,12.2-27.3,27.3-27.3h72.7
		c15,0,27.3,12.2,27.3,27.3v18.2C313.6,198.5,301.4,210.7,286.4,210.7z M213.6,156.2c-5,0-9.1,4.1-9.1,9.1v18.2c0,5,4.1,9.1,9.1,9.1
		h72.7c5,0,9.1-4.1,9.1-9.1v-18.2c0-5-4.1-9.1-9.1-9.1H213.6z"/>
	<g id="Rectangle-9">
		<g>
			<rect id="path-1" x="240.9" y="201.6" style="fill:#333333;fill-opacity:0.3;" width="18.2" height="36.4"/>
		</g>
		<rect x="240.9" y="201.6" style="fill:#858585;" width="18.2" height="36.4"/>
	</g>
	<path style="fill:#858585;" d="M368.2,338h-63.6c-15,0-27.3-12.2-27.3-27.3v-18.2c0-15,12.2-27.3,27.3-27.3h63.6
		c15,0,27.3,12.2,27.3,27.3v18.2C395.5,325.8,383.2,338,368.2,338z M304.5,283.5c-5,0-9.1,4.1-9.1,9.1v18.2c0,5,4.1,9.1,9.1,9.1
		h63.6c5,0,9.1-4.1,9.1-9.1v-18.2c0-5-4.1-9.1-9.1-9.1H304.5z"/>
	<path style="fill:#858585;" d="M195.5,338h-63.6c-15,0-27.3-12.2-27.3-27.3v-18.2c0-15,12.2-27.3,27.3-27.3h63.6
		c15,0,27.3,12.2,27.3,27.3v18.2C222.7,325.8,210.5,338,195.5,338z M131.8,283.5c-5,0-9.1,4.1-9.1,9.1v18.2c0,5,4.1,9.1,9.1,9.1
		h63.6c5,0,9.1-4.1,9.1-9.1v-18.2c0-5-4.1-9.1-9.1-9.1H131.8z"/>
	<path style="fill:#858585;" d="M342.1,275.6h-18.2v-19.1c0-5.2-4-9.2-9.1-9.2H187.1c-5,0-9.1,4.1-9.1,9V275h-18.2v-18.6
		c0-15,12.2-27.2,27.3-27.2h127.7c15,0,27.3,12.2,27.3,27.3V275.6z"/>
</g>
</svg>
