<?xml version="1.0" encoding="utf-8"?>
<!-- Generator: Adobe Illustrator 21.0.0, SVG Export Plug-In . SVG Version: 6.00 Build 0)  -->
<svg version="1.1"
	 id="Слой_1" shape-rendering="geometricPrecision" image-rendering="optimizeQuality" text-rendering="geometricPrecision"
	 xmlns="http://www.w3.org/2000/svg" xmlns:xlink="http://www.w3.org/1999/xlink" x="0px" y="0px" width="154px" height="35.2px"
	 viewBox="0 0 154 35.2" style="enable-background:new 0 0 154 35.2;" xml:space="preserve">
<path style="fill:none;" d="M0,0h154v35.2H0V0z"/>
<path style="fill:#00A7E8;" d="M20.9,5.9c-1.4-2.5-3.8-4.2-6.5-4.7c0,0,0,0,0,0c0.4,0.3,0.8,0.7,1.1,1.2c0.4,0.7,0.7,1.6,0.7,2.6
	c0,0.9-0.2,1.8-0.5,2.7c0,0,0,0,0,0.1l-0.1,0.3l0,0c-0.4,1.1-1.1,2.3-2,3.2l-0.1,0.1c-0.1,0.1-0.2,0.3-0.3,0.5
	c-0.8,1.2-1.2,2.6-0.9,4c0.2,1.1,0.8,2,1.7,2.6c2,1.4,4.9,0.7,6.4-1.6c0.1-0.1,0.2-0.2,0.2-0.3C22.6,13.2,22.8,9.2,20.9,5.9z"/>
<g>
	<path style="fill:#00A7E8;" d="M15.1,24.9c-1.1-1.2-2.2-2.1-3.4-3.1c-0.5-0.4-0.9-0.8-1.4-1.1l0,0l0,0c-0.4-0.4-0.8-0.7-1.3-1.2
		c0,0,0,0,0,0c-0.3-0.3-0.6-0.6-0.9-1C8,18.3,7.8,18.2,7.7,18c-0.1-0.2-0.3-0.3-0.4-0.5c-0.2-0.2-0.3-0.4-0.5-0.7
		c-0.1-0.1-0.2-0.2-0.3-0.4c-1.5-2.1-2.3-4.5-2.5-7l0-0.5c0-1.8,0.5-3.6,1.5-5c-2.2,1.9-3.6,4.5-4.2,7.8C0.2,19.1,3.7,28,6.8,31.5
		c0.1,0.1,0.5,0.6,0.7,0.7c2.7,2.7,6.6,3.1,8.7,1C18.1,31.3,17.7,27.6,15.1,24.9z"/>
	<path style="fill:#00A7E8;" d="M6.1,4c-1,1.4-1.5,3.2-1.5,5v0.5c0.1,2.3,1,4.7,2.4,6.7l0,0.1c0.1,0.1,0.2,0.2,0.2,0.3
		c0.1,0.2,0.3,0.4,0.4,0.6c0.1,0.2,0.3,0.3,0.4,0.5c0.1,0.1,0.2,0.2,0.3,0.3c0.1,0.1,0.2,0.2,0.3,0.4c-0.6-1.3-0.8-2.7-0.7-4.3
		l0-0.2h0c0.2-2.2,1.1-4.3,2.6-5.6c1-0.9,2.2-1.3,3.4-1.2c0.5,0,0.9,0.1,1.4,0.3c0.2-0.8,0.4-1.5,0.4-2.2c0-0.9-0.2-1.8-0.6-2.4
		c-0.3-0.5-0.6-0.8-1-1.1c0,0-0.1,0-0.1-0.1c-0.1,0-0.1-0.1-0.2-0.1c-0.4-0.3-1-0.4-1.7-0.4c-0.8,0-1.8,0.2-2.7,0.5
		c-0.1,0-0.1,0.1-0.2,0.1l0,0C7.8,2.3,6.6,3.1,6.1,4z"/>
</g>
<path style="fill:#00A6E8;" d="M49.8,14.3c3.2,0,5.6,1.9,5.6,5.2c0,3.4-2.4,5.2-5.6,5.2s-5.6-1.8-5.6-5.2S46.6,14.3,49.8,14.3z
	 M49.8,22.8c1.2,0,2.6-1,2.6-3.3c0-2.4-1.4-3.3-2.6-3.3c-1.3,0-2.6,1-2.6,3.3C47.2,21.9,48.6,22.8,49.8,22.8z M76.5,14.5h-9.2
	c-0.1,0-0.2,0.1-0.2,0.2v1.5c0,0.1,0.1,0.2,0.2,0.2h3.2v8c0,0.1,0.1,0.2,0.2,0.2h2.4c0.1,0,0.2-0.1,0.2-0.2v-8h3.2
	c0.1,0,0.2-0.1,0.2-0.2v-1.5C76.8,14.6,76.6,14.5,76.5,14.5z M65.6,24.6c0.1,0,0.2-0.1,0.2-0.2l0-1.5c0-0.1-0.1-0.2-0.2-0.2h-2.2
	c-2,0-3.3-1.2-3.3-3c0-2,1.5-3.1,3.4-3.1h2c0.1,0,0.2-0.1,0.2-0.2v-1.6c0-0.1-0.1-0.2-0.2-0.2H63c-3.9,0-5.9,2.3-5.9,5
	s1.9,5.2,5.8,5.2H65.6z M124.3,24.4l-4.4-5.1l3.4-4.1c0,0,0.1-0.1,0.2-0.2l0.2-0.3c0.1-0.1,0-0.2-0.1-0.2h-2.7
	c-0.1,0-0.2,0.1-0.3,0.1l-3.4,4.5h-0.1v-4.4c0-0.1-0.1-0.2-0.2-0.2h-2.4c-0.1,0-0.2,0.1-0.2,0.2v9.7c0,0.1,0.1,0.2,0.2,0.2h2.4
	c0.1,0,0.2-0.1,0.2-0.2v-4.6h0.1l3.5,4.7c0.1,0.1,0.2,0.2,0.4,0.2h3C124.3,24.6,124.3,24.5,124.3,24.4L124.3,24.4z M37.8,10.9h-3.3
	c-0.6,0.1-1,0.5-1,1v12.5c0,0.1,0.1,0.2,0.2,0.2h2.5c0.1,0,0.2-0.1,0.2-0.2v-4.9h1.9c3.7,0,5.1-2.5,5.1-4.3
	C43.5,14.3,43.2,10.9,37.8,10.9L37.8,10.9z M37.8,17.3h-1.4v-4.2h1.4c1.7,0,2.5,0.9,2.5,2.1C40.3,16.1,39.6,17.3,37.8,17.3z
	 M99.4,14.5h-7.3c-0.7,0-1.2,0.5-1.2,1.2v3.9c0,2-0.8,3.1-2.2,3.1h-0.1c-0.1,0-0.2,0.1-0.2,0.2v1.6c0,0.1,0.1,0.2,0.2,0.2h0.6
	c1.5,0,4.2-0.7,4.2-5.1v-3.1h3.4v8c0,0.1,0.1,0.2,0.2,0.2h2.4c0.1,0,0.2-0.1,0.2-0.2v-9.7C99.6,14.6,99.5,14.5,99.4,14.5L99.4,14.5z
	 M151.1,16.3v-0.7c0-0.6-0.6-1.2-1.2-1.2h-2.2c-0.1,0-0.2,0.1-0.3,0.2l-3.2,4.6l-3.1-4.6c-0.1-0.2-0.3-0.2-0.4-0.2h-2.1
	c-0.7,0-1.2,0.5-1.2,1.2v8.8c0,0.1,0.1,0.2,0.2,0.2h2.4c0.1,0,0.2-0.1,0.2-0.2v-5.5l-0.1-2.1h0.1l3.7,5.5c0.2,0.3,0.5,0.3,0.7,0
	l3.7-5.5h0.1l-0.1,2.1v5.5c0,0.1,0.1,0.2,0.2,0.2h2.4c0.1,0,0.2-0.1,0.2-0.2L151.1,16.3L151.1,16.3z M129.8,14.3
	c3.2,0,5.6,1.9,5.6,5.2c0,3.4-2.4,5.2-5.6,5.2c-3.2,0-5.6-1.8-5.6-5.2S126.6,14.3,129.8,14.3z M129.8,22.8c1.2,0,2.6-1,2.6-3.3
	c0-2.4-1.4-3.3-2.6-3.3s-2.6,1-2.6,3.3C127.2,21.9,128.6,22.8,129.8,22.8z M86.5,22.6h-2.3c-1.9,0-3.5-1-3.6-2.3h6
	c0.7,0,1.2-0.5,1.2-1.1V19c-0.1-1.6-0.8-4.7-4.9-4.7c-2.9,0-5.3,2-5.3,5.2c0,3.6,3.2,5.1,6.5,5.1h2.4c0.1,0,0.2-0.1,0.2-0.2v-1.6
	C86.8,22.7,86.6,22.6,86.5,22.6L86.5,22.6z M82.8,16.1c1.1,0,2.3,0.7,2.2,2.4h-4.5C80.6,17.2,81.5,16.1,82.8,16.1z M110.8,22.4
	c0,0-1.5,0.1-2.6,0.1c-1.9,0-3.5-0.9-3.6-2.2h6c0.7,0,1.2-0.5,1.2-1.1c-0.1-1.5-0.6-4.9-4.9-4.9c-2.9,0-5.3,2-5.3,5.2
	c0,3.6,3.2,5.1,6.5,5.1c1.3,0,2.7-0.1,2.7-0.1c0.1,0,0.2-0.1,0.2-0.2v-1.7C111.1,22.5,111,22.4,110.8,22.4L110.8,22.4z M106.9,16.1
	c1.1,0,2.3,0.7,2.2,2.4h-4.5C104.7,17.2,105.6,16.1,106.9,16.1z"/>
</svg>
